<svg xmlns="http://www.w3.org/2000/svg" width="1439" height="749" viewBox="0 0 1439 749">
  <defs>
    <style>
      .cls-1 {
        fill: #191d24;
        fill-rule: evenodd;
      }
    </style>
  </defs>
  <path class="cls-1" d="M4,575s535.434,228.124,1140,12c0,0,201.38-95.756,302-75l-3,248L-5,761-8,577Z"/>
</svg>
